{
	"webroot": "wwwroot",
	"userSecretsId": "aspnet5-chatle-75f79cf1-fb8a-43d9-8dd4-7d8dab2fef27",
	"version": "1.0.0-*",
	"authors": [
		"Olivier Lefebvre"
	],
	"description": "chatle is simple chat website using AST.NET 5 technologies",
	"buildOptions": {
		"emitEntryPoint": true,
		"warningsAsErrors": true,
		"preserveCompilationContext": true
	},
	"runtimeOptions": {
		"configProperties": {
			"System.GC.Server": true
		}
	},
	"configurations": {
		"Debug": {
			"buildOptions": {
				"define": [ "DEBUG", "TRACE" ]
			}
		},
		"Release": {
			"buildOptions": {
				"define": [ "RELEASE", "TRACE" ],
				"optimize": true
			}
		}
	},
	"dependencies": {
		"ChatLe.Repository.Identity": "1.0.0-*",
		"Microsoft.EntityFrameworkCore.InMemory": "1.0.0",
		"Microsoft.EntityFrameworkCore.SqlServer": "1.0.0",
		"Microsoft.AspNetCore.Authentication.Cookies": "1.0.0",
		"Microsoft.AspNetCore.Diagnostics": "1.0.0",
		"Microsoft.AspNetCore.Diagnostics.EntityFrameworkCore": "1.0.0",
		"Microsoft.AspNetCore.Identity.EntityFrameworkCore": "1.0.0",
		"Microsoft.AspNetCore.Server.IISIntegration": "1.0.0",
		"Microsoft.AspNetCore.Mvc": "1.0.0",
		"Microsoft.AspNetCore.Razor.Tools": {
			"version": "1.0.0-preview2-final",
			"type": "build"
		},
		"Microsoft.AspNetCore.Server.Kestrel": "1.0.0",
		"Microsoft.AspNetCore.StaticFiles": "1.0.0",
		"Microsoft.Extensions.Configuration.FileExtensions": "1.0.0",
		"Microsoft.Extensions.Configuration.Json": "1.0.0",
		"Microsoft.Extensions.Configuration.UserSecrets": "1.0.0",
		"Microsoft.Extensions.Logging": "1.1.0-alpha1-21657",
		"Microsoft.Extensions.Logging.Console": "1.0.0",
		"Microsoft.Extensions.Logging.TraceSource": "1.0.0",
		"Microsoft.Extensions.Logging.Debug": "1.0.0",
		"Microsoft.VisualStudio.Web.BrowserLink.Loader": "14.0.0",
		"Microsoft.AspNetCore.SignalR.Server": "0.2.0-*",
		"Microsoft.AspNetCore.WebSockets.Server": "0.2.0-*"
	},
	"frameworks": {
		"net451": {},
		"netcoreapp1.0": {
			"Microsoft.NETCore.App": {
				"version": "1.0.0",
				"type": "platform"
			},
			"imports": [
				"dotnet5.6",
				"portable-net45+win8"
			]
		}
	},
	"tools": {
		"Microsoft.AspNetCore.Razor.Tools": "1.0.0-preview2-final",
		"Microsoft.AspNetCore.Server.IISIntegration.Tools": "1.0.0-preview2-final"
	},
	"publishOptions": {
		"include": [
			"web.config",
			"config.json",
			"wwwroot"
		],
		"exclude": [
			"**.user",
			"**.vspscc"
		]
	},
	"runtimes": {
		"win7-x64": {},
		"win7-x86": {},
		"osx.10.11-x64": {},
		"ubuntu.14.04-x64": {},
		"centos.7-x64": {},
		"rhel.7.2-x64": {},
		"debian.8-x64": {}
	}
}
